<?xml version="1.0" encoding="UTF-8"?>
<svg width="265px" height="265px" viewBox="0 0 265 265" version="1.1" xmlns="http://www.w3.org/2000/svg" xmlns:xlink="http://www.w3.org/1999/xlink">
    <!-- Generator: Sketch 47.1 (45422) - http://www.bohemiancoding.com/sketch -->
    <title>Group 4</title>
    <desc>Created with Sketch.</desc>
    <defs>
        <linearGradient x1="50%" y1="0%" x2="50%" y2="100%" id="linearGradient-1">
            <stop stop-color="#25B7FA" offset="0%"></stop>
            <stop stop-color="#1080F2" offset="100%"></stop>
        </linearGradient>
    </defs>
    <g id="WWW-v1_2" stroke="none" stroke-width="1" fill="none" fill-rule="evenodd">
        <g id="O-nas" transform="translate(-149.000000, -1111.000000)">
            <g id="Group-4" transform="translate(150.000000, 1112.000000)">
                <circle id="Oval-2" stroke="#C3D5E9" stroke-width="2" fill="#FFFFFF" stroke-dasharray="8,3" cx="131.5" cy="131.5" r="131.5"></circle>
                <g id="if_engineering__gear__setting__process__2568275" transform="translate(62.000000, 62.000000)" fill-rule="nonzero">
                    <path d="M138.430998,101.267298 L131.39913,97.6061359 L133.781807,90.0224004 C134.101566,89.0054896 133.839977,87.872239 133.055387,87.0876533 L127.912458,81.9449294 C127.127869,81.160344 125.994611,80.898579 124.977695,81.2185139 L117.393918,83.6010007 L113.732736,76.5691711 C113.238643,75.6104302 112.250812,75 111.14664,75 L103.85336,75 C102.778273,75 101.761357,75.6104302 101.267264,76.5691711 L97.6060817,83.6010007 L90.0223049,81.2185139 C89.0053885,80.898579 87.8721318,81.160344 87.116627,81.9449294 L81.9446125,87.0876533 C81.1600228,87.8722387 80.8984337,89.0054896 81.2181931,90.0224004 L83.6008701,97.6061359 L76.5690021,101.267298 C75.610256,101.761389 75,102.749215 75,103.85338 L75,111.14662 C75,112.221701 75.6102563,113.238612 76.5690021,113.732702 L83.6008701,117.393864 L81.2181931,124.948515 C80.8984337,125.994511 81.1600228,127.127761 81.9446125,127.883262 L87.116627,133.055071 C87.8721318,133.839656 89.0053885,134.101421 90.0223049,133.781486 L97.6060817,131.398999 L101.267264,138.430829 C101.761357,139.38957 102.778273,140 103.85336,140 L111.14664,140 C112.250812,140 113.238643,139.38957 113.732736,138.430829 L117.393918,131.398999 L124.977695,133.781486 C125.994611,134.101421 127.127868,133.839656 127.912458,133.055071 L133.055387,127.883262 C133.839977,127.127761 134.101566,125.994511 133.781807,124.948515 L131.39913,117.393864 L138.430998,113.732702 C139.389744,113.238612 140,112.221701 140,111.14662 L140,103.85338 C140,102.749215 139.389744,101.761389 138.430998,101.267298 Z M107.514543,120.706007 C100.221263,120.706007 94.2937438,114.778698 94.2937438,107.485458 C94.2937438,100.221303 100.221263,94.2939935 107.514543,94.2939935 C114.778737,94.2939935 120.706256,100.221303 120.706256,107.485458 C120.706256,114.778698 114.778737,120.706007 107.514543,120.706007 Z" id="Shape" fill="#C3D5E9"></path>
                    <path d="M88.1383532,67.0363982 L91.8357751,56.866003 C92.1824028,55.8258969 91.9803502,54.6990273 91.2292647,53.9188598 L82.4764726,44.3551048 L90.3337801,34.0693773 C90.9981207,33.2027986 91.1136045,32.0755763 90.6804079,31.0936656 L86.0873252,21.2696196 C85.6252137,20.2877086 84.6718992,19.6517946 83.5741857,19.5939519 L70.6329451,19.0451541 L68.9285448,6.21647354 C68.7841459,5.14744639 68.0619753,4.22302529 67.051007,3.87632335 L56.8538739,0.177933644 C55.8429056,-0.19768962 54.7162773,0.0336800997 53.9073616,0.756005304 L44.3747451,9.53923998 L34.0621251,1.65150509 C33.1955556,0.98702224 32.0689273,0.871337525 31.0868738,1.33372418 L21.2652833,5.92761424 C20.2832301,6.3900009 19.6476281,7.34334333 19.6187133,8.41237047 L19.0698564,21.3853043 L6.21536236,23.0902457 C5.14656317,23.2344993 4.25107887,23.9568245 3.87553601,24.968009 L0.177937952,35.1673255 C-0.197604909,36.1788631 0.0335390764,37.3053798 0.755709665,38.0855477 L9.53724134,47.6493027 L1.65119426,57.9350301 C1.01559257,58.8016089 0.871193697,59.9577525 1.33348138,60.9110946 L5.9263884,70.7347879 C6.38867637,71.7170513 7.34181444,72.3526129 8.43952789,72.4104555 L21.3809433,72.9596061 L23.0851671,85.8168538 C23.229566,86.8858809 23.9517365,87.7813807 24.9628811,88.1573568 L35.1598382,91.8264726 C35.4777273,91.9421576 35.8243551,92 36.1420679,92 C36.8642385,92 37.557494,91.7400617 38.1063509,91.2487535 L47.63897,82.465166 L57.9515871,90.3532534 C58.7892414,91.0177362 59.9447848,91.1330685 60.9270145,90.6706815 L70.7484288,86.076792 C71.7017434,85.6433264 72.366084,84.661063 72.3949989,83.5920355 L72.9438554,70.6480242 L85.7985272,68.9141614 C86.8673258,68.7988295 87.7628104,68.047583 88.1383532,67.0363982 Z M53.7053087,62.4710772 C51.2787378,63.5982995 48.6788532,64.1760187 46.0213148,64.1760187 C39.0018352,64.1760187 32.5312147,60.0730847 29.5557872,53.7167639 C27.5049357,49.3249703 27.2737917,44.3840261 28.9203618,39.8190576 C30.5958469,35.2540892 33.9177259,31.6135421 38.3085794,29.5622512 C40.7349767,28.4064604 43.3348613,27.8283885 45.9923997,27.8283885 C53.0118767,27.8283885 59.4826731,31.9602438 62.4579243,38.3169174 C66.7043793,47.3890116 62.7756375,58.2238897 53.7053087,62.4710772 Z" id="Shape" fill="url(#linearGradient-1)"></path>
                </g>
            </g>
        </g>
    </g>
</svg>