<?xml version="1.0" encoding="UTF-8"?>
<svg width="67px" height="68px" viewBox="0 0 67 68" version="1.1" xmlns="http://www.w3.org/2000/svg" xmlns:xlink="http://www.w3.org/1999/xlink">
    <!-- Generator: Sketch 47.1 (45422) - http://www.bohemiancoding.com/sketch -->
    <title>Group 63</title>
    <desc>Created with Sketch.</desc>
    <defs></defs>
    <g id="WWW-v1_2" stroke="none" stroke-width="1" fill="none" fill-rule="evenodd">
        <g id="Start" transform="translate(-192.000000, -1508.000000)">
            <g id="TOP" transform="translate(-1812.000000, 151.000000)">
                <g id="Group-38" transform="translate(0.000000, 947.000000)">
                    <g id="Group-58" transform="translate(1962.000000, 22.000000)">
                        <g id="Group-57">
                            <g id="Group-63" transform="translate(42.000000, 388.000000)">
                                <rect id="Rectangle" fill="#FFFFFF" x="0" y="0" width="67" height="68"></rect>
                                <path d="M10.44,26.16 L10.44,31.6 L17.768,31.6 L17.768,35.6 L10.44,35.6 L10.44,41.152 L20.008,41.152 L20.008,45.312 L5,45.312 L5,22 L20.008,22 L20.008,26.16 L10.44,26.16 Z M30.92,32.96 C31.6560037,32.96 32.2826641,32.8666676 32.8,32.68 C33.3173359,32.4933324 33.7413317,32.2346683 34.072,31.904 C34.4026683,31.5733317 34.6426659,31.1866689 34.792,30.744 C34.9413341,30.3013311 35.016,29.8240026 35.016,29.312 C35.016,28.2879949 34.68267,27.4880029 34.016,26.912 C33.34933,26.3359971 32.3173403,26.048 30.92,26.048 L28.744,26.048 L28.744,32.96 L30.92,32.96 Z M42.408,45.312 L37.512,45.312 C36.6053288,45.312 35.9546686,44.9706701 35.56,44.288 L31.688,37.52 C31.5066658,37.2319986 31.3040011,37.021334 31.08,36.888 C30.8559989,36.754666 30.5360021,36.688 30.12,36.688 L28.744,36.688 L28.744,45.312 L23.336,45.312 L23.336,22 L30.92,22 C32.6053418,22 34.0426607,22.1733316 35.232,22.52 C36.4213393,22.8666684 37.3919962,23.3493302 38.144,23.968 C38.8960038,24.5866698 39.442665,25.3173291 39.784,26.16 C40.125335,27.0026709 40.296,27.919995 40.296,28.912 C40.296,29.6693371 40.1946677,30.3839966 39.992,31.056 C39.7893323,31.7280034 39.4906686,32.3493305 39.096,32.92 C38.7013314,33.4906695 38.2133362,33.9999978 37.632,34.448 C37.0506638,34.8960022 36.3813371,35.2639986 35.624,35.552 C35.9760018,35.7333342 36.3066651,35.9599986 36.616,36.232 C36.9253349,36.5040014 37.2026654,36.8266648 37.448,37.2 L42.408,45.312 Z M52.6,33.44 C54.008007,33.44 55.0213302,33.1040034 55.64,32.432 C56.2586698,31.7599966 56.568,30.8213394 56.568,29.616 C56.568,29.082664 56.4880008,28.5973355 56.328,28.16 C56.1679992,27.7226645 55.925335,27.3466682 55.6,27.032 C55.274665,26.7173318 54.8640025,26.4746675 54.368,26.304 C53.8719975,26.1333325 53.2826701,26.048 52.6,26.048 L49.784,26.048 L49.784,33.44 L52.6,33.44 Z M52.6,22 C54.2426749,22 55.6533274,22.1946647 56.832,22.584 C58.0106726,22.9733353 58.9813295,23.5093299 59.744,24.192 C60.5066705,24.8746701 61.0693315,25.6799954 61.432,26.608 C61.7946685,27.5360046 61.976,28.5386613 61.976,29.616 C61.976,30.7786725 61.7893352,31.8453285 61.416,32.816 C61.0426648,33.7866715 60.4720038,34.6186632 59.704,35.312 C58.9359962,36.0053368 57.9626726,36.5466647 56.784,36.936 C55.6053274,37.3253353 54.2106747,37.52 52.6,37.52 L49.784,37.52 L49.784,45.312 L44.376,45.312 L44.376,22 L52.6,22 Z" id="ERP" fill="#4A4A4A"></path>
                            </g>
                        </g>
                    </g>
                </g>
            </g>
        </g>
    </g>
</svg>