<?xml version="1.0" encoding="UTF-8"?>
<svg width="18px" height="24px" viewBox="0 0 18 24" version="1.1" xmlns="http://www.w3.org/2000/svg" xmlns:xlink="http://www.w3.org/1999/xlink">
    <!-- Generator: Sketch 47.1 (45422) - http://www.bohemiancoding.com/sketch -->
    <title>Group 5</title>
    <desc>Created with Sketch.</desc>
    <defs></defs>
    <g id="WWW-v1_2" stroke="none" stroke-width="1" fill="none" fill-rule="evenodd">
        <g id="Usługi" transform="translate(-930.000000, -2585.000000)">
            <g id="Group-4" transform="translate(0.000000, 2451.000000)">
                <g id="Group-51" transform="translate(928.000000, 133.000000)">
                    <g id="Group-5">
                        <rect id="Rectangle-2" x="0" y="0" width="21" height="72"></rect>
                        <g id="if_pin-locate-map-location-drop_2205197" transform="translate(2.000000, 1.000000)" fill-rule="nonzero" fill="#FFFFFF">
                            <path d="M9,24 C9,24 18,15.627 18,9 C18,2.373 13.971,0 9,0 C4.029,0 0,2.373 0,9 C0,15.627 9,24 9,24 Z M4.5,7.5 C4.5,5.0145 6.5145,3 9,3 C11.4855,3 13.5,5.0145 13.5,7.5 C13.5,9.9855 11.4855,12 9,12 C6.5145,12 4.5,9.9855 4.5,7.5 Z" id="Shape"></path>
                        </g>
                    </g>
                </g>
            </g>
        </g>
    </g>
</svg>