<?xml version="1.0" encoding="UTF-8"?>
<svg width="236px" height="140px" viewBox="0 0 236 140" version="1.1" xmlns="http://www.w3.org/2000/svg" xmlns:xlink="http://www.w3.org/1999/xlink">
    <!-- Generator: Sketch 40.3 (33839) - http://www.bohemiancoding.com/sketch -->
    <title>Group</title>
    <desc>Created with Sketch.</desc>
    <defs></defs>
    <g id="Page-1" stroke="none" stroke-width="1" fill="none" fill-rule="evenodd">
        <g id="Start" transform="translate(-705.000000, -1301.000000)" fill="#1080F2">
            <g id="Group-40" transform="translate(681.000000, 1134.000000)">
                <g id="1475869199_vector_65_16-copy" transform="translate(24.000000, 167.000000)">
                    <g id="Layer_1">
                        <g id="Group">
                            <path d="M202.458502,29.1924674 C201.187474,24.1035711 196.612476,20.8066081 191.720015,21.1226886 L186.336075,8.85633304 L119.886324,8.85633304 L119.886324,0 L115.906276,0 L115.906276,8.85633304 L49.4529979,8.85633304 L44.0749361,21.1226886 C39.1801239,20.8053924 34.6063022,24.1035711 33.3340978,29.1924674 C31.8925798,34.9597212 35.2494591,40.8473288 40.8285809,42.3389857 C46.4135817,43.8282112 52.1091066,40.3561883 53.5482731,34.5816403 C54.8204775,29.4915282 52.3536709,24.3199646 47.9244713,22.1463032 L52.5359183,12.9653798 L115.906276,12.9653798 L115.906276,21.8204971 C111.094945,22.7845427 107.457052,27.1573952 107.457052,32.4164887 C107.457052,38.3770379 112.12964,43.2069914 117.895712,43.2069914 L117.895712,43.2069914 L117.895712,43.2069914 C123.66296,43.2069914 128.332021,38.3770379 128.332021,32.4164887 C128.332021,27.1573952 124.697655,22.7845427 119.885148,21.8253599 L119.885148,12.9653798 L183.257857,12.9653798 L187.865777,22.1463032 C183.437753,24.3199646 180.97565,29.4927439 182.243151,34.5816403 C183.682318,40.3561883 189.375491,43.8269955 194.956964,42.3389857 C200.540789,40.8473288 203.898844,34.9633683 202.458502,29.1924674 L202.458502,29.1924674 Z M49.7010895,33.5580257 C48.8098409,37.1248728 45.2765931,39.2766517 41.8291779,38.3563711 C38.3770596,37.4360905 36.2982635,33.7829291 37.1859847,30.2172977 C38.0760574,26.6504506 41.6069537,24.4986717 45.059072,25.4189523 C48.5041356,26.3380172 50.5864591,29.9911786 49.7010895,33.5580257 L49.7010895,33.5580257 Z M124.359028,32.4164887 C124.359028,36.1000425 121.454827,39.0930819 117.895712,39.0930819 L117.895712,39.0930819 L117.895712,39.0930819 C114.330718,39.0930819 111.432396,36.1000425 111.432396,32.4164887 C111.432396,28.732935 114.329542,25.7350328 117.895712,25.7350328 L117.895712,25.7350328 L117.895712,25.7350328 C121.454827,25.7350328 124.359028,28.732935 124.359028,32.4164887 L124.359028,32.4164887 Z M193.964598,38.3563711 C190.514831,39.2766517 186.982759,37.1236571 186.097389,33.5580257 C185.202614,29.9960414 187.284937,26.3392329 190.738231,25.4189523 C194.187998,24.4986717 197.72007,26.6516663 198.605439,30.2172977 C199.49904,33.7877919 197.419068,37.4360905 193.964598,38.3563711 L193.964598,38.3563711 Z" id="Shape"></path>
                            <g transform="translate(0.000000, 63.000000)" id="Shape">
                                <path d="M60.4720363,45.109553 C60.2709763,44.1600958 59.7571562,43.260482 58.9505646,42.5322811 C58.1451487,41.8077273 57.1574854,41.3749401 56.1333726,41.2132528 L37.6875849,37.5126793 C40.5788516,35.1870561 43.4583604,31.2251083 45.2537912,26.6042543 C46.0345155,25.9708775 46.9575104,24.7685558 47.479561,23.3340366 C48.5166074,20.4735079 47.8217157,19.1386755 46.7670324,18.5697306 C46.7670324,8.50864447 42.7634688,0.620004097 32.6798969,0.620004097 C22.5939735,0.620004097 18.5904098,8.50742877 18.5904098,18.5697306 C17.5369023,19.1386755 16.8443622,20.4735079 17.8790571,23.3340366 C18.3987561,24.7697715 19.3241025,25.9720932 20.1071784,26.6042543 C21.8967302,31.2251083 24.776239,35.1870561 27.6710331,37.5126793 L9.22524542,41.2132528 C8.20583581,41.3749401 7.21582094,41.8077273 6.40335031,42.5322811 C5.600286,43.2616977 5.09234488,44.1600958 4.88305432,45.109553 L0,67.2826015 L9.20643278,70.5844273 C12.2658374,73.8680176 20.8173554,76.2848179 31.080823,76.510937 L32.6798969,76.510937 L34.2742676,76.510937 C44.5365595,76.2848179 53.0927806,73.8680176 56.1498337,70.5844273 L65.3562665,67.2826015 L60.4720363,45.109553 L60.4720363,45.109553 Z"></path>
                                <path d="M230.277223,45.109553 C230.067932,44.1600958 229.556464,43.260482 228.754575,42.5322811 C227.944456,41.8077273 226.954441,41.3749401 225.935032,41.2132528 L207.488068,37.5126793 C210.384038,35.1870561 213.262371,31.2251083 215.054274,26.6042543 C215.839702,25.9708775 216.757994,24.7685558 217.283572,23.3340366 C218.320618,20.4735079 217.623375,19.1386755 216.571043,18.5697306 C216.571043,8.50864447 212.567479,0.620004097 202.483908,0.620004097 C192.395633,0.620004097 188.396772,8.50742877 188.396772,18.5697306 C187.343265,19.1386755 186.647197,20.4735079 187.684244,23.3340366 C188.203943,24.7697715 189.128113,25.9720932 189.908837,26.6042543 C191.708971,31.2251083 194.587304,35.1870561 197.478571,37.5126793 L179.031608,41.2132528 C178.007495,41.3749401 177.022183,41.8077273 176.212064,42.5322811 C175.410176,43.2616977 174.89518,44.1600958 174.689417,45.109553 L169.805186,67.2813858 L179.016322,70.5832116 C182.071024,73.8668019 190.627245,76.2836022 200.890713,76.5097213 L202.485083,76.5097213 L204.079454,76.5097213 C214.339394,76.2836022 222.895615,73.8668019 225.953844,70.5832116 L235.161453,67.2813858 L230.277223,45.109553 L230.277223,45.109553 Z"></path>
                                <path d="M145.376981,45.109553 C145.166515,44.1600958 144.659749,43.260482 143.853158,42.5322811 C143.044215,41.8077273 142.057727,41.3749401 141.028911,41.2132528 L122.585475,37.5126793 C125.486148,35.1870561 128.359778,31.2251083 130.152857,26.6042543 C130.937109,25.9708775 131.8554,24.7685558 132.376275,23.3340366 C133.418025,20.4735079 132.725485,19.1386755 131.667274,18.5697306 C131.667274,8.50864447 127.66371,0.620004097 117.578963,0.620004097 C107.490688,0.620004097 103.489476,8.50742877 103.489476,18.5697306 C102.435968,19.1386755 101.743428,20.4735079 102.778123,23.3340366 C103.302525,24.7697715 104.22552,25.9720932 105.002717,26.6042543 C106.798148,31.2251083 109.677656,35.1870561 112.572451,37.5126793 L94.1254871,41.2132528 C93.1013743,41.3749401 92.113711,41.8077273 91.303592,42.5322811 C90.5017034,43.2616977 89.9925865,44.1600958 89.7809444,45.109553 L84.9002416,67.2813858 L94.1102018,70.5832116 C97.1672548,73.8668019 105.721124,76.2836022 115.983416,76.5097213 L117.578963,76.5097213 L119.178037,76.5097213 C129.439153,76.2836022 137.995374,73.8668019 141.051251,70.5832116 L150.262387,67.2813858 L145.376981,45.109553 L145.376981,45.109553 Z"></path>
                            </g>
                        </g>
                    </g>
                </g>
            </g>
        </g>
    </g>
</svg>