<?xml version="1.0" encoding="UTF-8"?>
<svg width="67px" height="68px" viewBox="0 0 67 68" version="1.1" xmlns="http://www.w3.org/2000/svg" xmlns:xlink="http://www.w3.org/1999/xlink">
    <!-- Generator: Sketch 47.1 (45422) - http://www.bohemiancoding.com/sketch -->
    <title>Group</title>
    <desc>Created with Sketch.</desc>
    <defs></defs>
    <g id="WWW-v1_2" stroke="none" stroke-width="1" fill="none" fill-rule="evenodd">
        <g id="Start" transform="translate(-1053.000000, -1111.000000)">
            <g id="Group-58" transform="translate(600.000000, 1098.000000)">
                <g id="Group-56" transform="translate(420.000000, 0.000000)">
                    <g id="Group-29" transform="translate(33.000000, 13.000000)">
                        <g id="Group">
                            <rect id="Rectangle" fill="#FFFFFF" x="0" y="0" width="67" height="68"></rect>
                            <g id="if_wordpress_circle_color_107144" transform="translate(11.000000, 12.000000)" fill="#454545">
                                <path d="M39.0165,22.5 C39.0165,31.62075 31.62,39.01575 22.5,39.01575 C13.37925,39.01575 5.9835,31.62075 5.9835,22.5 C5.9835,13.37925 13.37925,5.9835 22.5,5.9835 C31.62,5.9835 39.0165,13.37925 39.0165,22.5 Z M38.03475,22.5 C38.03475,31.0785 31.0785,38.03475 22.5,38.03475 C13.9215,38.03475 6.96525,31.0785 6.96525,22.5 C6.96525,13.9215 13.9215,6.96525 22.5,6.96525 C31.0785,6.96525 38.03475,13.9215 38.03475,22.5 Z M8.29725,22.5 C8.29725,20.39925 8.754,18.40425 9.57375,16.61025 L16.42275,35.3385 C11.6205,33.06075 8.29725,28.16775 8.29725,22.5 Z M22.5,36.702 C21.063,36.702 19.677,36.48825 18.36975,36.0915 L22.7445,23.55225 L27.255,35.886 C25.76775,36.41325 24.16875,36.702 22.5,36.702 Z M36.70275,22.5 C36.70275,27.87225 33.7185,32.5485 29.316,34.96125 L33.74625,22.41525 C34.4325,20.4735 35.06925,17.84925 34.99125,15.7365 C36.0825,17.748 36.70275,20.052 36.70275,22.5 Z M32.1075,12.042 C29.5785,9.71775 26.205,8.298 22.5,8.298 C17.505,8.298 13.1115,10.878 10.58025,14.778 C12.1935,14.7615 13.92525,14.7435 15.651,14.652 C15.72525,14.6475 15.78675,14.715 15.78675,14.793 L15.78675,15.6435 C15.78675,15.7215 15.726,15.78525 15.651,15.78525 L14.007,15.78525 C13.8225,15.78525 13.74525,15.89625 13.80975,16.086 L18.9675,31.28025 L22.10625,21.80475 L20.01975,16.09875 C19.944,15.8925 19.854,15.78525 19.533,15.78525 L18.09,15.78525 C18.01575,15.78525 17.95425,15.7215 17.95425,15.6435 L17.95425,14.793 C17.95425,14.715 18.01575,14.64825 18.09,14.65125 C20.77575,14.77125 23.478,14.7705 26.19675,14.65125 C26.27175,14.64825 26.3325,14.715 26.3325,14.793 L26.3325,15.6435 C26.3325,15.7215 26.27175,15.78525 26.19675,15.78525 L24.76125,15.78525 C24.477,15.78525 24.38475,15.9165 24.46425,16.14825 L29.54175,31.104 L31.40625,25.4295 C33.66,18.56925 29.47725,17.84325 29.58075,14.43225 C29.631,12.7455 30.86775,12.009 32.1075,12.042 Z M22.5,45 C10.074,45 0,34.926 0,22.5 C0,10.07325 10.074,0 22.5,0 C34.926,0 45,10.07325 45,22.5 C45,34.926 34.926,45 22.5,45 Z" id="Shape"></path>
                            </g>
                        </g>
                    </g>
                </g>
            </g>
        </g>
    </g>
</svg>